<?xml version="1.0" encoding="UTF-8" standalone="no"?>
<svg width="120px" height="120px" viewBox="0 0 120 120" version="1.1" xmlns="http://www.w3.org/2000/svg" xmlns:xlink="http://www.w3.org/1999/xlink" xmlns:sketch="http://www.bohemiancoding.com/sketch/ns">
    <!-- Generator: Sketch 3.2.2 (9983) - http://www.bohemiancoding.com/sketch -->
    <title>logo-placeholder</title>
    <desc>Created with Sketch.</desc>
    <defs></defs>
    <g id="Page-1" stroke="none" stroke-width="1" fill="none" fill-rule="evenodd" sketch:type="MSPage">
        <g id="logo-placeholder" sketch:type="MSLayerGroup">
            <rect id="Rectangle-13" stroke="#EDEDED" fill="#FFFFFF" sketch:type="MSShapeGroup" x="0" y="0" width="120" height="120" rx="5"></rect>
            <path d="M59.3600794,89.5806258 L59.3559655,89.5825094 L83.4759389,89.5825094 L83.4759389,77.9352354 C87.7877081,72.6071914 90.3673599,65.840658 90.3673599,58.4764157 C90.3673599,41.2969937 76.3288168,27.370322 59.0113944,27.370322 C41.693972,27.370322 27.655429,41.2969937 27.655429,58.4764157 C27.655429,75.6558378 41.693972,89.5825094 59.0113944,89.5825094 C59.1277719,89.5825094 59.2440013,89.5818805 59.3600794,89.5806258 L59.3600794,89.5806258 Z M59.0113944,78.1223696 C69.9487138,78.1223696 78.8151621,69.326577 78.8151621,58.4764157 C78.8151621,47.6262544 69.9487138,38.8304618 59.0113944,38.8304618 C48.074075,38.8304618 39.2076268,47.6262544 39.2076268,58.4764157 C39.2076268,69.326577 48.074075,78.1223696 59.0113944,78.1223696 Z" id="Rectangle-2" fill="#EDEDED" sketch:type="MSShapeGroup"></path>
        </g>
    </g>
</svg>