<?xml version="1.0" encoding="UTF-8" standalone="no"?>
<svg width="140px" height="136px" viewBox="0 0 140 136" version="1.1" xmlns="http://www.w3.org/2000/svg" xmlns:xlink="http://www.w3.org/1999/xlink" xmlns:sketch="http://www.bohemiancoding.com/sketch/ns">
    <!-- Generator: Sketch 3.2.2 (9983) - http://www.bohemiancoding.com/sketch -->
    <title>Shape</title>
    <desc>Created with Sketch.</desc>
    <defs></defs>
    <g id="Account-Settings" stroke="none" stroke-width="1" fill="none" fill-rule="evenodd" sketch:type="MSPage">
        <path d="M109.618511,101.607111 C91.2606383,94.8192 85.3925532,89.0936 85.3925532,76.8324444 C85.3925532,69.4718222 90.9985106,71.876 93.4589362,58.3968889 C94.4806383,52.8057778 99.4312766,58.3062222 100.378511,45.5418667 C100.378511,40.4539556 97.6768085,39.1906667 97.6768085,39.1906667 C97.6768085,39.1906667 99.05,31.6623111 99.5876596,25.8687111 C100.253404,18.6501333 95.4770213,0 69.9985106,0 C44.52,0 39.7406383,18.6501333 40.4093617,25.8687111 C40.9470213,31.6623111 42.3202128,39.1906667 42.3202128,39.1906667 C42.3202128,39.1906667 39.6185106,40.4539556 39.6185106,45.5418667 C40.5642553,58.3062222 45.5148936,52.8057778 46.5365957,58.3968889 C49,71.8744889 54.6029787,69.4718222 54.6029787,76.8324444 C54.6029787,89.0920889 48.7378723,94.8176889 30.38,101.607111 C11.9640426,108.416178 0,115.358222 0,120.092533 L0,136 L70,136 L140,136 L140,120.092533 C139.998511,115.356711 128.034468,108.416178 109.618511,101.607111 L109.618511,101.607111 Z" id="Shape" fill="#EDEDED" sketch:type="MSShapeGroup"></path>
    </g>
</svg>